,Huntingtin_intensity_count,Huntingtin_intensity_avg,Huntingtin_intensity_std,Huntingtin_intensity_q10,Huntingtin_intensity_q50,Huntingtin_intensity_q90,Huntingtin_intensity_max,Huntingtin_intensity_sum
3,638.0,3.0047021943573666,0.06841113743822945,3.0,3.0,3.0,4.0,1917.0
4,1880.0,3.109042553191489,0.34102963354404164,3.0,3.0,3.0,5.0,5845.0
5,1574.0,3.0063532401524777,0.07945361220260981,3.0,3.0,3.0,4.0,4732.0
6,2045.0,3.056234718826406,0.4957190856722561,3.0,3.0,3.0,11.0,6250.0
7,2476.0,3.637318255250404,1.1639287463158337,3.0,3.0,5.0,10.0,9006.0
8,721.0,3.0624133148404993,0.3075368584794488,3.0,3.0,3.0,6.0,2208.0
9,3464.0,3.2673210161662816,0.49549376399585765,3.0,3.0,4.0,6.0,11318.0
10,4157.0,3.1118595140726484,0.5726055826002524,3.0,3.0,3.0,12.0,12936.0
11,2314.0,3.0397579948141744,0.1997646243275124,3.0,3.0,3.0,5.0,7034.0
12,2885.0,3.050259965337955,0.21848089440997467,3.0,3.0,3.0,4.0,8800.0
13,2595.0,3.0315992292870906,0.20344704158018545,3.0,3.0,3.0,6.0,7867.0
14,3975.0,3.1144654088050316,0.31837568844390196,3.0,3.0,4.0,4.0,12380.0
15,5010.0,3.1646706586826348,0.43754593864018926,3.0,3.0,4.0,6.0,15855.0
